2 R Spatial – R-Tricks
…
To import a file

read_sf(system.file("sqlite/test3.sqlite",package="sf")) 

Warning in CPL_read_ogr(dsn, layer, query, as.character(options), quiet, :
automatically selected the first layer in a data source containing more than
one.

Simple feature collection with 8101 features and 5 fields
Geometry type: POINT
Dimension:     XY
Bounding box:  xmin: 319224 ymin: 3934674 xmax: 1308585 ymax: 5214373
Projected CRS: WGS 84 / UTM zone 32N
# A tibble: 8,101 × 6
   Name               Peoples LocalCounc County Region           Geometry
   <chr>                <int>      <int>  <int>  <int>        <POINT [m]>
 1 Brozolo                435          1      0      0 (427002.8 4996361)
 2 Campiglione-Fenile    1284          1      0      0 (367470.5 4962414)
 3 Canischio              274          1      0      0 (390084.1 5025552)
 4 Cavagnolo             2281          1      0      0   (425247 5000248)
 5 Magliano Alfieri      1674          1      0      0 (426418.9 4957737)
 6 Mango                 1334          1      0      0 (432661.5 4948470)
 7 Manta                 3363          1      0      0 (379960.2 4941389)
 8 Marene                2703          1      0      0   (399494 4946145)
 9 Margarita             1297          1      0      0 (395282.6 4917524)
10 Martiniana Po          667          1      0      0 (370131.2 4942846)
# ℹ 8,091 more rows

read_sf(system.file("sqlite/test3.sqlite",package="sf"), "Towns") # more specific

Simple feature collection with 8101 features and 5 fields
Geometry type: POINT
Dimension:     XY
Bounding box:  xmin: 319224 ymin: 3934674 xmax: 1308585 ymax: 5214373
Projected CRS: WGS 84 / UTM zone 32N
# A tibble: 8,101 × 6
   Name               Peoples LocalCounc County Region           Geometry
   <chr>                <int>      <int>  <int>  <int>        <POINT [m]>
 1 Brozolo                435          1      0      0 (427002.8 4996361)
 2 Campiglione-Fenile    1284          1      0      0 (367470.5 4962414)
 3 Canischio              274          1      0      0 (390084.1 5025552)
 4 Cavagnolo             2281          1      0      0   (425247 5000248)
 5 Magliano Alfieri      1674          1      0      0 (426418.9 4957737)
 6 Mango                 1334          1      0      0 (432661.5 4948470)
 7 Manta                 3363          1      0      0 (379960.2 4941389)
 8 Marene                2703          1      0      0   (399494 4946145)
 9 Margarita             1297          1      0      0 (395282.6 4917524)
10 Martiniana Po          667          1      0      0 (370131.2 4942846)
# ℹ 8,091 more rows
…
